A gentle Introduction of Coding with R
…
3.3 Basic Data Manipulation

In this section, we brifely introduce some basic data handling and manipulation techniques, which are mostly associated with data frame. A data frame is a a tabular shaped contains columns and rows of equal length. In general a data frame structure with rows representing observations or measurements and with columns containing variables.

3.3.1 Explore the Data Frame

We can visualize the table by simply run the name of the data flights

flights

## # A tibble: 336,776 x 19
##     year month   day dep_time sched_dep_time dep_delay arr_time
##    <int> <int> <int>    <int>          <int>     <int>    <int>
##  1  2013     1     1      517            515         2      830
##  2  2013     1     1      533            529         4      850
##  3  2013     1     1      542            540         2      923
##  4  2013     1     1      544            545        -1     1004
##  5  2013     1     1      554            600        -6      812
##  6  2013     1     1      554            558        -4      740
##  7  2013     1     1      555            600        -5      913
##  8  2013     1     1      557            600        -3      709
##  9  2013     1     1      557            600        -3      838
## 10  2013     1     1      558            600        -2      753
## # ... with 336,766 more rows, and 12 more variables: sched_arr_time <int>,
## #   arr_delay <int>, carrier <chr>, flight <int>, tailnum <chr>,
## #   origin <chr>, dest <chr>, air_time <int>, distance <int>, hour <int>,
## #   minute <int>, time_hour <dttm>
…
